  SmokeRisesFromTheMountainOfDoomAndTheHourGrowsLate
  --------------------------------------------------
G|.........................................x........
a|......................x........................x..
n|....................x...x.......x.................
d|.................................x................
a|......................x........................x..
l|..................................................
f|..........................x.......................
T|..............Q...................Q...............
h|...............Q...................Q..............
e|....x...x.......Q...................Q............x
G|.........................................x........
r|...........x............................x.x.......
e|....x...x.......x...................x............x
y|..................................................
R|.....x............................................
i|......x................x..........................
d|.................................x................
e|....x...x.......x...................x............x
s|.......x.x...................................x....
T|..............x...................x...............
o|..x.........x.....x.........xx........x....x......
I|..................................................
s|.......x.x...................................x....
e|....x...x.......x...................x............x
n|....................x...x.......x.................
g|..................................................
a|......................x........................x..
r|...........x............................x.x.......
d|.................................x................
S|x.................................................
e|....x...x.......x...................x............x
e|....x...x.......x...................x............x
k|...x..............................................
i|......x................x..........................
n|....................x...x.......x.................
g|..................................................
M|.................x................................
y|..................................................
C|..................................................
o|..x.........x.....Q.........xx........x....x......
u|...................Q...................x..........
n|....................Q...x.......x.................
s|.......x.x...................................x....
e|....x...x.......x...................x............x
l|..................................................
